MASTEMR - Quantitative methods in the context of STEM education research
…
You might want to save your own work as a .csv for use later or for manipulation in another tool e.g. Excel. To do this we can use write_csv(<your_data>, "<your_folder><name>.csv"). NOTE: don’t forget to add .csv to the end of your “.csv”, otherwise you might struggle to open the file in another program.

library(tidyverse)
# loading from a website
write_csv(data, "summary_stats.csv")

2.9 Exploring data

Now that we have loaded the PISA_2018 dataset we can start to explore it.

You can check that the tables have loaded correctly by typing the object name and ‘running’ the line (control|command ⌘ and Enter)

PISA_2018

# A tibble: 612,004 × 205
   CNT     OECD  ISCEDL   ISCEDD ISCEDO PROGN WVARS…¹ COBN_F COBN_M COBN_S GRADE
 * <fct>   <fct> <fct>    <fct>  <fct>  <fct>   <dbl> <fct>  <fct>  <fct>  <fct>
 1 Albania No    ISCED l… C      Vocat… Alba…       3 Alban… Alban… Alban… 0    
 2 Albania No    ISCED l… C      Vocat… Alba…       3 Alban… Alban… Alban… 0    
 3 Albania No    ISCED l… C      Vocat… Alba…       3 Alban… Alban… Alban… 0    
 4 Albania No    ISCED l… C      Vocat… Alba…       3 Alban… Alban… Alban… 0    
 5 Albania No    ISCED l… C      Vocat… Alba…       3 Alban… Alban… Alban… 0    
 6 Albania No    ISCED l… C      Vocat… Alba…       3 Alban… Alban… Alban… 0    
 7 Albania No    ISCED l… C      Vocat… Alba…       3 Missi… Missi… Missi… 0    
 8 Albania No    ISCED l… C      Vocat… Alba…       3 Alban… Alban… Alban… 0    
 9 Albania No    ISCED l… C      Vocat… Alba…       3 Alban… Alban… Alban… 0    
10 Albania No    ISCED l… C      Vocat… Alba…       3 Missi… Missi… Missi… 0    
# … with 611,994 more rows, 194 more variables: SUBNATIO <fct>, STRATUM <fct>,
#   ESCS <dbl>, LANGN <fct>, LMINS <dbl>, OCOD1 <fct>, OCOD2 <fct>,
#   REPEAT <fct>, CNTRYID <fct>, CNTSCHID <dbl>, CNTSTUID <dbl>, NatCen <fct>,
#   ADMINMODE <fct>, LANGTEST_QQQ <fct>, LANGTEST_COG <fct>, BOOKID <fct>,
#   ST001D01T <fct>, ST003D02T <fct>, ST003D03T <fct>, ST004D01T <fct>,
#   ST005Q01TA <fct>, ST007Q01TA <fct>, ST011Q01TA <fct>, ST011Q02TA <fct>,
#   ST011Q03TA <fct>, ST011Q04TA <fct>, ST011Q05TA <fct>, ST011Q06TA <fct>, …
…
Note

To learn more about loading data from in other formats, e.g. SPSS and STATA, look at the tidyverse documentation for haven.

The PISA_2018 dataframe is made up of multiple columns, with each column acting like a vector, which means each column stores values of only one datatype. If we look at the first four columns of the schools table, you can see the CNTSTUID, ESCS and PV1MATH columns are <dbl> (numeric) and the other three columns are of <fctr> (factor), a special datatype in R that helps store categorical and ordinal variables, see Section 2.11.2 for more information on how factors work.

# A tibble: 5 × 5
  CNTSTUID ST004D01T CNT       ESCS PV1MATH
     <dbl> <fct>     <fct>    <dbl>   <dbl>
1   800251 Male      Albania  0.675    490.
2   800402 Male      Albania -0.757    462.
3   801902 Female    Albania -2.51     407.
4   803546 Male      Albania -3.18     483.
5   804776 Male      Albania -1.76     460.

Note

Vectors are data structures that bring together one or more data elements of the same datatype. E.g. we might have a numeric vector recording the grades of a class, or a character vector storing the gender of a set of students. To define a vector we use c(item, item, ...), where c stands for combine. Vectors are very important to R, even declaring a single object, x <- 6, is creating a vector of size one. To find out more about vectors see: Section 2.5.1

We can find out some general information about the table we have loaded. nrow and ncol tell you about the dimensions of the table

nrow(PISA_2018)  # how many rows are in the results table

[1] 612004

ncol(PISA_2018)  # how many columns are in the results table

[1] 205

If we want to know the names of the columns we can use the names() command that returns a vector. This can be a little confusing as it’ll return the names used in the dataframe, which can be hard to interpret, e.g. ST004D01T is PISA’s way of encoding gender. You might find the labels in the view of the table available through view(PISA_2018) and the Environment panel easier to navigate:

names(PISA_2018) # the column names of a table

 [1] "CNT"          "OECD"         "ISCEDL"       "ISCEDD"       "ISCEDO"      
 [6] "PROGN"        "WVARSTRR"     "COBN_F"       "COBN_M"       "COBN_S"      
[11] "GRADE"        "SUBNATIO"     "STRATUM"      "ESCS"         "LANGN"       
[16] "LMINS"        "OCOD1"        "OCOD2"        "REPEAT"       "CNTRYID"     
[21] "CNTSCHID"     "CNTSTUID"     "NatCen"       "ADMINMODE"    "LANGTEST_QQQ"
[26] "LANGTEST_COG" "BOOKID"       "ST001D01T"    "ST003D02T"    "ST003D03T"   
[31] "ST004D01T"    "ST005Q01TA"   "ST007Q01TA"   "ST011Q01TA"   "ST011Q02TA"  
[36] "ST011Q03TA"   "ST011Q04TA"   "ST011Q05TA"   "ST011Q06TA"   "ST011Q07TA"  
 [ reached getOption("max.print") -- omitted 165 entries ]
…
The pipe command we are using %>% is from the magrittr package which is installed alongside the tidyverse. Recently R introduced another pipe |> which offers very similar functionality and tutorials online might use either. The examples below use the %>% pipe.

Let’s look at an example of using the pipe on the PISA_2018 table to calculate the best performing OECD countries for maths PV1MATH by gender ST004D01T:

PISA_2018 %>% 
  filter(OECD == "Yes") %>%
  group_by(CNT, ST004D01T) %>% 
  summarise(mean_maths = mean(PV1MATH, na.rm=TRUE),
            sd_maths = sd(PV1MATH, na.rm=TRUE),
            students = n()) %>%
  filter(!is.na(ST004D01T)) %>%
  arrange(desc(mean_maths))

# A tibble: 74 × 5
# Groups:   CNT [37]
   CNT            ST004D01T mean_maths sd_maths students
   <fct>          <fct>          <dbl>    <dbl>    <int>
 1 Japan          Male            533.     90.5     2989
 2 Korea          Male            530.    102.      3459
 3 Estonia        Male            528.     85.0     2665
 4 Japan          Female          523.     82.2     3120
 5 Korea          Female          523.     96.0     3191
 6 Switzerland    Male            520.     92.7     3033
 7 Estonia        Female          519.     76.0     2651
 8 Czech Republic Male            518.     98.0     3501
 9 Belgium        Male            518.     95.9     4204
10 Poland         Male            517.     91.8     2768
# … with 64 more rows
…
2.10.1 select

The PISA_2018 dataset has far too many fields, to reduce the number of fields to focus on just a few of them we can use select

PISA_2018 %>% select(CNT,ESCS, ST004D01T, ST003D02T)

# A tibble: 612,004 × 4
   CNT       ESCS ST004D01T ST003D02T
   <fct>    <dbl> <fct>     <fct>    
 1 Albania  0.675 Male      February 
 2 Albania -0.757 Male      July     
 3 Albania -2.51  Female    April    
 4 Albania -3.18  Male      April    
 5 Albania -1.76  Male      March    
 6 Albania -1.49  Female    February 
 7 Albania NA     Female    July     
 8 Albania -3.25  Male      August   
 9 Albania -1.72  Female    March    
10 Albania NA     Female    July     
# … with 611,994 more rows

You might also be in the situation where you want to select everything but one or two fields, you can do this with the negative signal -:

PISA_2018 %>% select(-CNT, -OECD)

# A tibble: 612,004 × 203
   ISCEDL ISCEDD ISCEDO PROGN WVARS…¹ COBN_F COBN_M COBN_S GRADE SUBNA…² STRATUM
   <fct>  <fct>  <fct>  <fct>   <dbl> <fct>  <fct>  <fct>  <fct> <fct>   <fct>  
 1 ISCED… C      Vocat… Alba…       3 Alban… Alban… Alban… 0     Albania ALB - …
 2 ISCED… C      Vocat… Alba…       3 Alban… Alban… Alban… 0     Albania ALB - …
 3 ISCED… C      Vocat… Alba…       3 Alban… Alban… Alban… 0     Albania ALB - …
 4 ISCED… C      Vocat… Alba…       3 Alban… Alban… Alban… 0     Albania ALB - …
 5 ISCED… C      Vocat… Alba…       3 Alban… Alban… Alban… 0     Albania ALB - …
 6 ISCED… C      Vocat… Alba…       3 Alban… Alban… Alban… 0     Albania ALB - …
 7 ISCED… C      Vocat… Alba…       3 Missi… Missi… Missi… 0     Albania ALB - …
 8 ISCED… C      Vocat… Alba…       3 Alban… Alban… Alban… 0     Albania ALB - …
 9 ISCED… C      Vocat… Alba…       3 Alban… Alban… Alban… 0     Albania ALB - …
10 ISCED… C      Vocat… Alba…       3 Missi… Missi… Missi… 0     Albania ALB - …
# … with 611,994 more rows, 192 more variables: ESCS <dbl>, LANGN <fct>,
#   LMINS <dbl>, OCOD1 <fct>, OCOD2 <fct>, REPEAT <fct>, CNTRYID <fct>,
#   CNTSCHID <dbl>, CNTSTUID <dbl>, NatCen <fct>, ADMINMODE <fct>,
#   LANGTEST_QQQ <fct>, LANGTEST_COG <fct>, BOOKID <fct>, ST001D01T <fct>,
#   ST003D02T <fct>, ST003D03T <fct>, ST004D01T <fct>, ST005Q01TA <fct>,
#   ST007Q01TA <fct>, ST011Q01TA <fct>, ST011Q02TA <fct>, ST011Q03TA <fct>,
#   ST011Q04TA <fct>, ST011Q05TA <fct>, ST011Q06TA <fct>, ST011Q07TA <fct>, …

You might find that you have a vector of column names that you want to select, to do this, we can use the any_of command:

my_fields <- c("CNTSTUID", "CNTSCHID", "ST004D01T")
PISA_2018 %>% select(any_of(my_fields))

# A tibble: 612,004 × 3
   CNTSTUID CNTSCHID ST004D01T
      <dbl>    <dbl> <fct>    
 1   800251   800002 Male     
 2   800402   800002 Male     
 3   801902   800002 Female   
 4   803546   800002 Male     
 5   804776   800002 Male     
 6   804825   800002 Female   
 7   804983   800002 Female   
 8   805287   800002 Male     
 9   805601   800002 Female   
10   806295   800002 Female   
# … with 611,994 more rows

With hundreds of fields, you might want to focus on fields whose names match a certain pattern, to do this you can use starts_with, ends_with, contains:

PISA_2018 %>% select(ends_with("NA"))

# A tibble: 612,004 × 19
   ST011Q16NA ST012Q05NA ST012…¹ ST012…² ST125…³ ST060…⁴ ST061…⁵ IC009…⁶ IC009…⁷
   <fct>      <fct>      <fct>   <fct>   <fct>     <dbl> <fct>   <fct>   <fct>  
 1 Yes        <NA>       One     One     6 year…      31 45      Yes, a… No     
 2 Yes        Three or … One     None    4 years      37 45      No      Yes, b…
 3 No         One        None    None    4 years      NA 45      Yes, a… Yes, a…
 4 No         <NA>       None    One     1 year…      31 45      Yes, a… No     
 5 No         One        One     None    3 years      80 100     Yes, a… Yes, a…
 6 No         Three or … One     None    6 year…      24 25      Yes, a… Yes, a…
 7 <NA>       <NA>       <NA>    <NA>    <NA>         NA <NA>    <NA>    <NA>   
 8 No         None       None    None    1 year…      NA 45      <NA>    <NA>   
 9 Yes        Three or … One     One     4 years      36 45      Yes, a… Yes, a…
10 <NA>       <NA>       <NA>    <NA>    <NA>         NA <NA>    <NA>    <NA>   
# … with 611,994 more rows, 10 more variables: IC009Q07NA <fct>,
#   IC009Q10NA <fct>, IC009Q11NA <fct>, IC008Q07NA <fct>, IC008Q13NA <fct>,
#   IC010Q02NA <fct>, IC010Q05NA <fct>, IC010Q06NA <fct>, IC010Q09NA <fct>,
#   IC010Q10NA <fct>, and abbreviated variable names ¹​ST012Q06NA, ²​ST012Q09NA,
#   ³​ST125Q01NA, ⁴​ST060Q01NA, ⁵​ST061Q01NA, ⁶​IC009Q05NA, ⁷​IC009Q06NA
…
[EXTENSION] Adjust the answer to Q3 so that you select the gender ST004D01T and the ID CNTSTUID of each student in addition to the IC15____ fields

answer
PISA_2018 %>% 
  select(CNTSTUID, ST004D01T, starts_with("IC15"))

2.10.2 filter

Not only does the PISA_2018 dataset have a huge number of columns, it has hundred of thousands of rows. We want to filter this down to the students that we are interested in, i.e. filter out data that isn’t useful for our analysis. If we only wanted the results that were Male, we could do the following:

PISA_2018 %>% 
  select(CNT,ESCS, ST004D01T, ST003D02T, PV1MATH) %>%
  filter(ST004D01T == "Male")

# A tibble: 307,044 × 5
   CNT       ESCS ST004D01T ST003D02T PV1MATH
   <fct>    <dbl> <fct>     <fct>       <dbl>
 1 Albania  0.675 Male      February     490.
 2 Albania -0.757 Male      July         462.
 3 Albania -3.18  Male      April        483.
 4 Albania -1.76  Male      March        460.
 5 Albania -3.25  Male      August       441.
 6 Albania NA     Male      March        280.
 7 Albania -1.09  Male      March        523.
 8 Albania -1.24  Male      June         314.
 9 Albania -0.164 Male      August       428.
10 Albania -0.451 Male      December     369.
# … with 307,034 more rows

We can combine filter commands to look for Males born in September and where the PV1MATH figure is greater than 750. We can list multiple criteria in the filter by separating the criteria with commas, using commas mean that all of these criteria need to be TRUE for a row to be returned. A comma in a filter is the equivalent of an AND, :

PISA_2018 %>% 
  select(CNT,ESCS, ST004D01T, ST003D02T, PV1MATH) %>%
  filter(ST004D01T == "Male",
         ST003D02T == "September",
         PV1MATH > 750)

# A tibble: 56 × 5
   CNT                    ESCS ST004D01T ST003D02T PV1MATH
   <fct>                 <dbl> <fct>     <fct>       <dbl>
 1 United Arab Emirates  0.861 Male      September    760.
 2 Belgium               0.887 Male      September    751.
 3 Bulgaria             -0.160 Male      September    752.
 4 Canada                1.38  Male      September    751.
 5 Canada                1.16  Male      September    760.
 6 Canada                0.760 Male      September    770.
 7 Switzerland           0.814 Male      September    783.
 8 Germany               0.740 Male      September    762.
 9 Spain                 1.46  Male      September    787.
10 Estonia               0.897 Male      September    752.
# … with 46 more rows
…
# A tibble: 0 × 5
# … with 5 variables: CNT <fct>, ESCS <dbl>, ST004D01T <fct>, ST003D02T <fct>,
#   PV1MATH <dbl>

The reason is R is looking for inidividual students born in September AND October AND November AND December. As a student can only have one birth month there are no students that meet this criteria. We need to use OR :

To create an OR in a filter we use the bar | character, the below looks for all students who are “Male” AND were born in “September” OR “October” OR “November” OR “December”, AND have a PV1MATH > 750.

PISA_2018 %>% 
  select(CNT,ESCS, ST004D01T, ST003D02T, PV1MATH) %>%
  filter(ST004D01T == "Male",
         (ST003D02T == "September" | ST003D02T == "October" | ST003D02T == "November" | ST003D02T == "December"),
         PV1MATH > 750)

# A tibble: 175 × 5
   CNT                     ESCS ST004D01T ST003D02T PV1MATH
   <fct>                  <dbl> <fct>     <fct>       <dbl>
 1 Albania               0.539  Male      October      789.
 2 United Arab Emirates  0.861  Male      September    760.
 3 United Arab Emirates  0.813  Male      October      753.
 4 United Arab Emirates  0.953  Male      November     766.
 5 United Arab Emirates  0.930  Male      November     773.
 6 United Arab Emirates  1.44   Male      October      752.
 7 Australia             1.73   Male      December     756.
 8 Australia            -0.0537 Male      October      827.
 9 Australia             1.18   Male      November     758.
10 Australia             1.13   Male      October      757.
# … with 165 more rows
…
Line 1 passes the full PISA_2018 to the pipe

Line 2 makes groups within PISA_2018 using the unique values of ST011Q06TA

Line 3, these groups are then passed to summarise, which creates a new column called student_n and stores the number of rows in each ST011Q06TA group using the n() command. summarise only returns the columns it creates, or are in the group_by, everything else is discarded.

What we might want to do is look at this data from a country by country perspective, by adding another field to the group_by() command, we then group by the unique combination of countries CNT and internet access ST011Q06TA, e.g. Albania+Yes; Albania+No; Albania+NA; Brazil+Yes; etc

int_by_cnt <- PISA_2018 %>% 
  group_by(CNT, ST011Q06TA) %>%
  summarise(student_n = n())

print(int_by_cnt)

# A tibble: 240 × 3
# Groups:   CNT [80]
   CNT                  ST011Q06TA student_n
   <fct>                <fct>          <int>
 1 Albania              Yes             5059
 2 Albania              No              1084
 3 Albania              <NA>             216
 4 United Arab Emirates Yes            17616
 5 United Arab Emirates No               949
 6 United Arab Emirates <NA>             712
 7 Argentina            Yes             9871
 8 Argentina            No              1781
 9 Argentina            <NA>             323
10 Australia            Yes            12547
# … with 230 more rows

summarise can also be used to work out statistics by grouping. For example, if you wanted to find out the max, mean and min science grade PV1SCIE by country CNT, you could do the following:

PISA_2018 %>% 
  group_by(CNT) %>%
  summarise(sci_max  = max(PV1SCIE,  na.rm = TRUE),
            sci_mean = mean(PV1SCIE, na.rm = TRUE),
            sci_min  = min(PV1SCIE,  na.rm = TRUE))

# A tibble: 80 × 4
   CNT                    sci_max sci_mean sci_min
   <fct>                    <dbl>    <dbl>   <dbl>
 1 Albania                   674.     417.   166. 
 2 United Arab Emirates      778.     425.    86.3
 3 Argentina                 790.     418.   138. 
 4 Australia                 879.     502.   153. 
 5 Austria                   779.     493.   175. 
 6 Belgium                   764.     502.   196. 
 7 Bulgaria                  741.     426.   145. 
 8 Bosnia and Herzegovina    664.     398.   152. 
 9 Belarus                   799.     474.   192. 
10 Brazil                    747.     407.    95.6
# … with 70 more rows
…
2.10.5 mutate

Sometimes you will want to adjust the values stored in a field, e.g. converting a distance in miles into kilometres; or compute a new fields based on other fields, e.g. working out a total grade given the parts of a test. To do this we can use mutate. Unlike summarise, mutate retains all the other columns either adding a new column or changing an existing one

mutate(<field> = <field_calculation>)

The PISA_2018 dataset has results for maths PV1MATH, science PV1SCIE and reading PV1READ. We could combine these to create an overall PISA_grade, and PISA_mean:

PISA_2018 %>%
  mutate(PV1_total = PV1MATH + PV1SCIE + PV1READ,
         PV1_mean = PV1_total/3) %>%
  select(CNT, ESCS, PV1_total, PV1_mean)

# A tibble: 612,004 × 4
   CNT       ESCS PV1_total PV1_mean
   <fct>    <dbl>     <dbl>    <dbl>
 1 Albania  0.675     1311.     437.
 2 Albania -0.757     1319.     440.
 3 Albania -2.51      1158.     386.
 4 Albania -3.18      1424.     475.
 5 Albania -1.76      1094.     365.
 6 Albania -1.49      1004.     335.
 7 Albania NA         1311.     437.
 8 Albania -3.25      1104.     368.
 9 Albania -1.72      1268.     423.
10 Albania NA         1213.     404.
# … with 611,994 more rows
…
