Loading packages and exploring data – MASTEMR
…
The table above has 4 columns, each column has a datatype, CNT is a character vector, PV1MATH is a double (numeric) vector, ESCS is a double (numeric) vector and IC172Q01JA is a factor. For more about datatypes, see ?@sec-datatypes

Dataframes are made from a collection of vectors, each column can be treated as if it was a vector, for example you can add one column to another:

PISA_2022 %>% 
  select(CNT, PV1MATH, PV1SCIE, PV1READ) %>% 
  mutate(overall_grade = PV1MATH + PV1SCIE + PV1READ)

# A tibble: 613,744 × 5
   CNT     PV1MATH PV1SCIE PV1READ overall_grade
   <fct>     <dbl>   <dbl>   <dbl>         <dbl>
 1 Albania    180.    335.    248.          763.
 2 Albania    308.    315.    258.          882.
 3 Albania    268.    359.    285.          911.
 4 Albania    273.    215.    322.          809.
 5 Albania    435.    435.    464.         1335.
 6 Albania    534.    479.    451.         1464.
 7 Albania    382.    342.    391.         1115.
 8 Albania    273.    323.    308.          904.
 9 Albania    355.    361.    429.         1145.
10 Albania    430.    386.    420.         1235.
# ℹ 613,734 more rows
…
You might want to save your own work as a .csv for use later or for manipulation in another tool e.g. Excel. To do this we can use write_csv(<your_data>, "<your_folder><name>.csv"). NOTE: don’t forget to add .csv to the end of your “.csv”, otherwise you might struggle to open the file in another program.

library(tidyverse)
# saving your results to a file called `summary_stats.csv`
write_csv(my_results, "summary_stats.csv")

8 Exploring data

Now that we have loaded the PISA_2022 dataset we can start to explore it.

You can check that the tables have loaded correctly by typing the object name and ‘running’ the line (control|command ⌘ and Enter)

PISA_2022

# A tibble: 613,744 × 84
   CNT     CNTSCHID CNTSTUID REGION  OECD  LANGTEST_QQQ ST003D02T ST003D03T
 * <fct>      <dbl>    <dbl> <fct>   <fct> <fct>        <fct>     <fct>    
 1 Albania   800282   800001 Albania No    Albanian     May       2006     
 2 Albania   800115   800002 Albania No    Albanian     February  2006     
 3 Albania   800242   800003 Albania No    Albanian     August    2006     
 4 Albania   800245   800005 Albania No    Albanian     July      2006     
 5 Albania   800285   800006 Albania No    Albanian     January   2006     
 6 Albania   800172   800007 Albania No    Albanian     May       2006     
 7 Albania   800082   800008 Albania No    Albanian     May       2006     
 8 Albania   800274   800009 Albania No    Albanian     December  2006     
 9 Albania   800057   800010 Albania No    Albanian     August    2006     
10 Albania   800132   800012 Albania No    Albanian     September 2006     
# ℹ 613,734 more rows
# ℹ 76 more variables: ST004D01T <fct>, ST250Q01JA <fct>, ST250Q02JA <fct>,
#   ST250Q03JA <fct>, ST250Q05JA <fct>, ST251Q01JA <fct>, ST251Q06JA <fct>,
#   ST251Q07JA <fct>, ST253Q01JA <fct>, ST254Q01JA <fct>, ST254Q02JA <fct>,
#   ST254Q03JA <fct>, ST254Q04JA <fct>, ST254Q05JA <fct>, ST254Q06JA <fct>,
#   ST255Q01JA <fct>, ST256Q02JA <fct>, ST005Q01JA <fct>, ST007Q01JA <fct>,
#   ST019AQ01T <fct>, ST019BQ01T <fct>, ST019CQ01T <fct>, ST125Q01NA <fct>, …
…
Note

To learn more about loading data from in other formats, e.g. SPSS and STATA, look at the tidyverse documentation for haven.

The PISA_2022 dataframe is made up of multiple columns, with each column acting like a vector, which means each column stores values of only one datatype. If we look at the first four columns of the schools table, you can see the CNTSTUID, ESCS and PV1MATH columns are <dbl> (numeric) and the other three columns are of <fctr> (factor), a special datatype in R that helps store categorical and ordinal variables, see ?@sec-factors for more information on how factors work.

# A tibble: 5 × 5
  CNTSTUID ST004D01T CNT       ESCS PV1MATH
     <dbl> <fct>     <fct>    <dbl>   <dbl>
1   800001 Female    Albania  1.11     180.
2   800002 Male      Albania -3.05     308.
3   800003 Male      Albania -0.187    268.
4   800005 Female    Albania -3.22     273.
5   800006 Female    Albania -1.05     435.

Note

Vectors are data structures that bring together one or more data elements of the same datatype. E.g. we might have a numeric vector recording the grades of a class, or a character vector storing the gender of a set of students. To define a vector we use c(item, item, ...), where c stands for combine. Vectors are very important to R, even declaring a single object, x <- 6, is creating a vector of size one. To find out more about vectors see: ?@sec-vectors

We can find out some general information about the table we have loaded. nrow and ncol tell you about the dimensions of the table

nrow(PISA_2022)  # how many rows are in the results table

[1] 613744

ncol(PISA_2022)  # how many columns are in the results table

[1] 84

If we want to know the names of the columns we can use the names() command that returns a vector. This can be a little confusing as it’ll return the names used in the dataframe, which can be hard to interpret, e.g. ST004D01T is PISA’s way of encoding gender. You might find the labels in the view of the table available through View(PISA_2022) (note: the capital V in View) and the Environment panel easier to navigate:

names(PISA_2022) # the column names of a table

 [1] "CNT"          "CNTSCHID"     "CNTSTUID"     "REGION"       "OECD"        
 [6] "LANGTEST_QQQ" "ST003D02T"    "ST003D03T"    "ST004D01T"    "ST250Q01JA"  
[11] "ST250Q02JA"   "ST250Q03JA"   "ST250Q05JA"   "ST251Q01JA"   "ST251Q06JA"  
[16] "ST251Q07JA"   "ST253Q01JA"   "ST254Q01JA"   "ST254Q02JA"   "ST254Q03JA"  
[21] "ST254Q04JA"   "ST254Q05JA"   "ST254Q06JA"   "ST255Q01JA"   "ST256Q02JA"  
[26] "ST005Q01JA"   "ST007Q01JA"   "ST019AQ01T"   "ST019BQ01T"   "ST019CQ01T"  
[31] "ST125Q01NA"   "ST261Q01JA"   "ST261Q04JA"   "ST062Q02TA"   "ST038Q08NA"  
[36] "ST016Q01NA"   "ST337Q07JA"   "ST324Q11JA"   "ST355Q03JA"   "FL150Q02TA"  
 [ reached 'max' / getOption("max.print") -- omitted 44 entries ]
…
