Piping and dplyr – MASTEMR
…
line 3 groups the data by country CNT and by student gender ST004D01T, this is then piped to the next line

4

line 4-6 the summarise command performs a calculation on the country and gender groupings returning three new columns, each command is described by code on a new line and separated by a comma: the mean value for maths mean_maths, the standard deviation sd_maths, and a column telling us how many students were in each grouping using the n() which returns the number of rows in a group. These new columns and the grouping columns are then piped to the next line, all other columns are dropped

5

line 7 filters out any gender ST004D01T that is NA. First is finds all the students that have NA as their gender by using is.na(ST004D01T), then it NOTs/flips the result using the exclamation mark !, giving those students who don’t have their gender set to NA. The filtered data is then piped to the next line

6

line 8, finally we arrange/sort the results in descending order by the mean_maths column. The default for arrange is ascending order, leave out the desc(  ) for the numbers to be ordered in the opposite way.

# A tibble: 74 × 5
# Groups:   CNT [37]
   CNT            ST004D01T mean_maths sd_maths students
   <fct>          <fct>          <dbl>    <dbl>    <int>
 1 Japan          Male            540.     99.0     2856
 2 Korea          Male            534.    112.      3325
 3 Japan          Female          531.     88.1     2904
 4 Korea          Female          528.     99.1     3129
 5 Estonia        Male            515.     87.4     3272
 6 Switzerland    Male            511.     99.3     3540
 7 Estonia        Female          510.     81.5     3120
 8 Czech Republic Male            502.    100.      4232
 9 Switzerland    Female          501.     90.9     3289
10 Austria        Male            500.     94.5     3110
# ℹ 64 more rows
…
1 select

The PISA_2022 dataset has far too many fields, to reduce the number of fields to focus on just a few of them we can use select

PISA_2022 %>% 
  select(CNT,ESCS, ST004D01T, ST003D02T)

# A tibble: 613,744 × 4
   CNT       ESCS ST004D01T ST003D02T
   <fct>    <dbl> <fct>     <fct>    
 1 Albania  1.11  Female    May      
 2 Albania -3.05  Male      February 
 3 Albania -0.187 Male      August   
 4 Albania -3.22  Female    July     
 5 Albania -1.05  Female    January  
 6 Albania  1.09  Male      May      
 7 Albania -0.762 Male      May      
 8 Albania -1.02  Female    December 
 9 Albania -1.17  Female    August   
10 Albania  0.286 Female    September
# ℹ 613,734 more rows

You might also be in the situation where you want to select everything but one or two fields, you can do this with the negative signal -, the below code returns all the fields except CNT and OECD:

PISA_2022 %>% select(-CNT, -OECD)

# A tibble: 613,744 × 82
   CNTSCHID CNTSTUID REGION  LANGTEST_QQQ ST003D02T ST003D03T ST004D01T
      <dbl>    <dbl> <fct>   <fct>        <fct>     <fct>     <fct>    
 1   800282   800001 Albania Albanian     May       2006      Female   
 2   800115   800002 Albania Albanian     February  2006      Male     
 3   800242   800003 Albania Albanian     August    2006      Male     
 4   800245   800005 Albania Albanian     July      2006      Female   
 5   800285   800006 Albania Albanian     January   2006      Female   
 6   800172   800007 Albania Albanian     May       2006      Male     
 7   800082   800008 Albania Albanian     May       2006      Male     
 8   800274   800009 Albania Albanian     December  2006      Female   
 9   800057   800010 Albania Albanian     August    2006      Female   
10   800132   800012 Albania Albanian     September 2006      Female   
# ℹ 613,734 more rows
# ℹ 75 more variables: ST250Q01JA <fct>, ST250Q02JA <fct>, ST250Q03JA <fct>,
#   ST250Q05JA <fct>, ST251Q01JA <fct>, ST251Q06JA <fct>, ST251Q07JA <fct>,
#   ST253Q01JA <fct>, ST254Q01JA <fct>, ST254Q02JA <fct>, ST254Q03JA <fct>,
#   ST254Q04JA <fct>, ST254Q05JA <fct>, ST254Q06JA <fct>, ST255Q01JA <fct>,
#   ST256Q02JA <fct>, ST005Q01JA <fct>, ST007Q01JA <fct>, ST019AQ01T <fct>,
#   ST019BQ01T <fct>, ST019CQ01T <fct>, ST125Q01NA <fct>, ST261Q01JA <fct>, …

You might find that you have a vector of column names that you want to select, to do this, we can use the any_of command:

my_fields <- c("CNT", "CNTSCHID", "ST004D01T")
PISA_2022 %>% select(any_of(my_fields))

# A tibble: 613,744 × 3
   CNT     CNTSCHID ST004D01T
   <fct>      <dbl> <fct>    
 1 Albania   800282 Female   
 2 Albania   800115 Male     
 3 Albania   800242 Male     
 4 Albania   800245 Female   
 5 Albania   800285 Female   
 6 Albania   800172 Male     
 7 Albania   800082 Male     
 8 Albania   800274 Female   
 9 Albania   800057 Female   
10 Albania   800132 Female   
# ℹ 613,734 more rows

With hundreds of fields available, you might want to focus on fields whose names match a certain pattern, to do this you can use starts_with, ends_with, contains:

# country of birth of student, and father and mother are recorded in ST019___
PISA_2022 %>% select(starts_with("ST019"))

# A tibble: 613,744 × 3
   ST019AQ01T      ST019BQ01T      ST019CQ01T     
   <fct>           <fct>           <fct>          
 1 Country of test Country of test Country of test
 2 Country of test Country of test Country of test
 3 Other country   Country of test Country of test
 4 Country of test Country of test Country of test
 5 Country of test Country of test Country of test
 6 Country of test Country of test Country of test
 7 Country of test Country of test Country of test
 8 Country of test Country of test Country of test
 9 Country of test Country of test Country of test
10 Country of test Country of test Country of test
# ℹ 613,734 more rows
…
answer

PISA_2022 %>% 
  select(CNTSTUID, ST004D01T, starts_with("ST254")) %>% na.omit()

2 filter

Not only does the PISA_2022 dataset have a huge number of columns, it has hundred of thousands of rows. We want to filter this down to the students that we are interested in, i.e. filter out data that isn’t useful for our analysis. If we only wanted the results that were Male, we could do the following:

PISA_2022 %>% 
  select(CNT, ESCS, ST004D01T, ST003D02T, PV1MATH) %>%
  filter(ST004D01T == "Male")

# A tibble: 307,906 × 5
   CNT       ESCS ST004D01T ST003D02T PV1MATH
   <fct>    <dbl> <fct>     <fct>       <dbl>
 1 Albania -3.05  Male      February     308.
 2 Albania -0.187 Male      August       268.
 3 Albania  1.09  Male      May          534.
 4 Albania -0.762 Male      May          382.
 5 Albania -1.98  Male      October      425.
 6 Albania  0.063 Male      April        463.
 7 Albania -0.170 Male      May          236.
 8 Albania -2.58  Male      August       327.
 9 Albania -1.09  Male      March        326.
10 Albania -0.334 Male      October      428.
# ℹ 307,896 more rows

We can combine filter commands to look for Males born in September and where the PV1MATH figure is greater than 750. We can list multiple criteria in the filter by separating the criteria with commas, using commas mean that all of these criteria need to be TRUE for a row to be returned. A comma in a filter is the equivalent of an AND, :

PISA_2022 %>% 
  select(CNT, ESCS, ST004D01T, ST003D02T, PV1MATH) %>%
  filter(ST004D01T == "Male",
         ST003D02T == "September",
         PV1MATH > 750)

# A tibble: 52 × 5
   CNT             ESCS ST004D01T ST003D02T PV1MATH
   <fct>          <dbl> <fct>     <fct>       <dbl>
 1 Australia      0.994 Male      September    770.
 2 Australia      0.837 Male      September    758.
 3 Australia      1.22  Male      September    807.
 4 Canada         1.06  Male      September    752.
 5 Canada         1.04  Male      September    788.
 6 Canada         1.21  Male      September    781.
 7 Canada         0.804 Male      September    750.
 8 Chinese Taipei 0.842 Male      September    753.
 9 Chinese Taipei 0.488 Male      September    794.
10 Chinese Taipei 1.23  Male      September    794.
# ℹ 42 more rows
…
# A tibble: 0 × 5
# ℹ 5 variables: CNT <fct>, ESCS <dbl>, ST004D01T <fct>, ST003D02T <fct>,
#   PV1MATH <dbl>

The reason is R is looking for individual students born in September AND October AND November AND December. As a student can only have one birth month there are no students that meet this criteria. We need to use OR :

To create an OR in a filter we use the bar | character, the below looks for all students who are “Male” AND were born in “September” OR “October” OR “November” OR “December”, AND have a PV1MATH > 750.

PISA_2022 %>% 
  select(CNT, ESCS, ST004D01T, ST003D02T, PV1MATH) %>%
  filter(ST004D01T == "Male",
         (ST003D02T == "September" | ST003D02T == "October" | ST003D02T == "November" | ST003D02T == "December"),
         PV1MATH > 750)

# A tibble: 194 × 5
   CNT        ESCS ST004D01T ST003D02T PV1MATH
   <fct>     <dbl> <fct>     <fct>       <dbl>
 1 Australia 0.994 Male      September    770.
 2 Australia 1.03  Male      October      808.
 3 Australia 1.30  Male      October      762.
 4 Australia 1.21  Male      November     764.
 5 Australia 0.837 Male      September    758.
 6 Australia 1.22  Male      September    807.
 7 Belgium   0.746 Male      December     770.
 8 Belgium   0.939 Male      December     779.
 9 Belgium   1.25  Male      November     832.
10 Belgium   1.11  Male      October      776.
# ℹ 184 more rows
…
What we might want to do is look at this data from a country by country perspective, by adding another field to the group_by() command, we then group by the unique combination of countries CNT and internet access ST250Q05JA, e.g. Albania + Yes; Albania + No; Albania + NA; United Arab Emirates + Yes; etc

int_by_cnt <- PISA_2022 %>% 
  group_by(CNT, ST250Q05JA) %>%
  summarise(student_n = n())

print(int_by_cnt)

# A tibble: 238 × 3
# Groups:   CNT [80]
   CNT                  ST250Q05JA student_n
   <fct>                <fct>          <int>
 1 Albania              Yes             4693
 2 Albania              No               535
 3 Albania              <NA>             901
 4 United Arab Emirates Yes            22206
 5 United Arab Emirates No              1116
 6 United Arab Emirates <NA>            1278
 7 Argentina            Yes            10484
 8 Argentina            No               938
 9 Argentina            <NA>             689
10 Australia            Yes            12808
# ℹ 228 more rows

summarise can also be used to work out statistics by grouping. For example, if you wanted to find out the max, mean and min science grade PV1SCIE by country CNT, you could do the following:

PISA_2022 %>% 
  group_by(CNT) %>%
  summarise(sci_max  = max(PV1SCIE,  na.rm = TRUE),
            sci_mean = mean(PV1SCIE, na.rm = TRUE),
            sci_min  = min(PV1SCIE,  na.rm = TRUE))

# A tibble: 80 × 4
   CNT                  sci_max sci_mean sci_min
   <fct>                  <dbl>    <dbl>   <dbl>
 1 Albania                 724.     376.    74.6
 2 United Arab Emirates    842.     436.     0  
 3 Argentina               751.     415.   128. 
 4 Australia               875.     508.   108. 
 5 Austria                 804.     494.   170. 
 6 Belgium                 792.     495.   169. 
 7 Bulgaria                728.     422.   130. 
 8 Brazil                  784.     406.   106. 
 9 Brunei Darussalam       762.     445.   135. 
10 Canada                  893.     499.   107. 
# ℹ 70 more rows
…
1

mutate creates a new field called PV1_total made up by adding together the columns for maths, science and reading. Each column acts like a vector and adding them together is the equivalent of adding each students individual grades together, row by row. See ?@sec-vectors for more details on vector addition.

2

inside the same mutate statement, we take the PV1_total calculated on line two and divide it by 3, to give us a mean value, this is then assigned to a new column, PV1_mean.

3

this line selects only the fields that we are interested in, dropping the others

# A tibble: 613,744 × 5
   CNT     ST004D01T   ESCS PV1_total PV1_mean
   <fct>   <fct>      <dbl>     <dbl>    <dbl>
 1 Albania Female     1.11       763.     254.
 2 Albania Male      -3.05       882.     294.
 3 Albania Male      -0.187      911.     304.
 4 Albania Female    -3.22       809.     270.
 5 Albania Female    -1.05      1335.     445.
 6 Albania Male       1.09      1464.     488.
 7 Albania Male      -0.762     1115.     372.
 8 Albania Female    -1.02       904.     301.
 9 Albania Female    -1.17      1145.     382.
10 Albania Female     0.286     1235.     412.
# ℹ 613,734 more rows
…
2

this line creates a new column called PV1READ_high for every students, storing a boolean value, TRUE or FALSE depending on whether their reading grates PV1READ > 550.

3

a grouping is made on the country and the new field PV1READ_high, e.g. Albania + TRUE, Albania + FALSE, etc.

4

using summarise we can find the number of student rows in each grouping using n(), and drop all the other fields

# A tibble: 159 × 3
# Groups:   CNT [80]
   CNT                  PV1READ_high     n
   <fct>                <lgl>        <int>
 1 Albania              FALSE         6055
 2 Albania              TRUE            74
 3 United Arab Emirates FALSE        20711
 4 United Arab Emirates TRUE          3889
 5 Argentina            FALSE        11197
 6 Argentina            TRUE           914
 7 Australia            FALSE         9005
 8 Australia            TRUE          4432
 9 Austria              FALSE         4461
10 Austria              TRUE          1690
# ℹ 149 more rows
…
For more information on how to mutate fields using ifelse, see Section 8.1

6 arrange

The results returned by pipes can be huge, so it’s a good idea to store them in objects and explore them in the Environment window where you can sort and search within the output. There might also be times when you want to order/arrange the outputs in a particular way. We can do this quite easily in the tidyverse by using the arrange(<column_name>, <column_name>) function.

PISA_2022 %>%
  select(CNT, ST004D01T, PV1MATH) %>%
  arrange(PV1MATH)

# A tibble: 613,744 × 3
   CNT       ST004D01T PV1MATH
   <fct>     <fct>       <dbl>
 1 Cambodia  Male          0  
 2 Guatemala Female       57.8
 3 Cambodia  Female       84.7
 4 Cambodia  Male         87.9
 5 Cambodia  Male         88.6
 6 Paraguay  Male         90.4
 7 Cambodia  Male         94.4
 8 Cambodia  Female       98.0
 9 Albania   Male         99.7
10 Cambodia  Female      100. 
# ℹ 613,734 more rows

If we’re interested in the highest achieving students we can add the desc() function to arrange:

PISA_2022 %>%
  select(CNT, LANGN, ST004D01T, PV1MATH) %>%
  arrange(desc(PV1MATH))

# A tibble: 613,744 × 4
   CNT               LANGN     ST004D01T PV1MATH
   <fct>             <fct>     <fct>       <dbl>
 1 Singapore         Invalid   Male         943.
 2 Chinese Taipei    Mandarin  Male         917.
 3 Singapore         Invalid   Male         897.
 4 Korea             Korean    Male         893.
 5 Korea             Korean    Female       889.
 6 Chinese Taipei    Mandarin  Male         887.
 7 Singapore         Invalid   Male         883.
 8 Hong Kong (China) Cantonese Male         880.
 9 Korea             Korean    Male         868.
10 Singapore         Invalid   Male         867.
# ℹ 613,734 more rows
…
using student_n from line 7 and the number of students per country total, from line 4, create a percentage per for each grouping

10

as we have percentages for both Repeated at lease once and Never repeated, we only need to display one of these.

11

finally, we sort the data on the per/percentage column, to show the countries with the highest level of repeating a grade. This data is self-recorded by students, so might not be totally reliable!

12

save the data to your own folder as a csv

# A tibble: 78 × 5
# Groups:   CNT [78]
   CNT                REPEAT                 student_n total   per
   <fct>              <fct>                      <int> <int> <dbl>
 1 Morocco            Repeated at lease once      3156  6796 0.464
 2 Colombia           Repeated at lease once      2783  7401 0.376
 3 Cambodia           Repeated at lease once      1697  5156 0.329
 4 Guatemala          Repeated at lease once      1382  5110 0.270
 5 Panama             Repeated at lease once      1050  4080 0.257
 6 Philippines        Repeated at lease once      1793  7071 0.254
 7 Dominican Republic Repeated at lease once      1603  6566 0.244
 8 Belgium            Repeated at lease once      1941  8055 0.241
 9 Jamaica            Repeated at lease once       851  3600 0.236
10 Netherlands        Repeated at lease once      1118  4858 0.230
# ℹ 68 more rows
…
ifelse(<statement(s)>, <value_if_true>, <value_if_false>)

ifelse allows us to recode the data. In the example below, we are going to add a new column to the PISA_2022 dataset (using mutate) noting whether a student got a higher grade in their Maths PV1MATH or Reading PV1READ tests. if PV1MATH is bigger then PV1READ, the maths_better is TRUE, else maths_better is FALSE, or in dplyr format:

maths_data <- PISA_2022 %>%
  mutate(maths_better = 
           ifelse(PV1MATH > PV1READ,
                  TRUE, 
                  FALSE)) %>%
  select(CNT, ST004D01T, maths_better, PV1MATH, PV1READ)

print(maths_data)

# A tibble: 613,744 × 5
   CNT     ST004D01T maths_better PV1MATH PV1READ
   <fct>   <fct>     <lgl>          <dbl>   <dbl>
 1 Albania Female    FALSE           180.    248.
 2 Albania Male      TRUE            308.    258.
 3 Albania Male      FALSE           268.    285.
 4 Albania Female    FALSE           273.    322.
 5 Albania Female    FALSE           435.    464.
 6 Albania Male      TRUE            534.    451.
 7 Albania Male      FALSE           382.    391.
 8 Albania Female    FALSE           273.    308.
 9 Albania Female    FALSE           355.    429.
10 Albania Female    TRUE            430.    420.
# ℹ 613,734 more rows
…
The levels in each field are different, i.e. the range of home languages is larger than the range of test languages. To fix this, all we need to do is change the datatype of the factors LANGN and LANGTEST_QQQ to characters using as.character(<field>). This will then allow the comparison of the text stored in each row:

lang_data <- PISA_2022 %>%
  mutate(lang_diff = 
           ifelse(as.character(LANGN) == as.character(LANGTEST_QQQ),
                  FALSE, 
                  TRUE)) %>%
  select(CNT, lang_diff, LANGTEST_QQQ, LANGN)

print(lang_data)

# A tibble: 613,744 × 4
   CNT     lang_diff LANGTEST_QQQ LANGN   
   <fct>   <lgl>     <fct>        <fct>   
 1 Albania FALSE     Albanian     Albanian
 2 Albania FALSE     Albanian     Albanian
 3 Albania FALSE     Albanian     Albanian
 4 Albania FALSE     Albanian     Albanian
 5 Albania FALSE     Albanian     Albanian
 6 Albania FALSE     Albanian     Albanian
 7 Albania FALSE     Albanian     Albanian
 8 Albania FALSE     Albanian     Albanian
 9 Albania FALSE     Albanian     Albanian
10 Albania FALSE     Albanian     Albanian
# ℹ 613,734 more rows
…
