03 Descriptive Statistics – MASTEMR
…
line 2 uses group_by to use the values in CNT to group the data - i.e. the calculate the means for each country

3

line 3 uses summarise to calculate the mean of PV1SCIE (the science score) and puts the result in a column called MeanSci

4

line 4 uses summarise to calculate the mean of PV1MATH (the maths score) and puts the result in a column called MeanMath

5

line 5 uses the n() function to count the number of students the sample

# A tibble: 80 × 4
   CNT                  MeanSci MeanMath Total
   <fct>                  <dbl>    <dbl> <int>
 1 Albania                 376.     368.  6129
 2 United Arab Emirates    436.     434. 24600
 3 Argentina               415.     389. 12111
 4 Australia               508.     487. 13437
 5 Austria                 494.     491.  6151
 6 Belgium                 495.     494.  8286
 7 Bulgaria                422.     418.  6107
 8 Brazil                  406.     380. 10798
 9 Brunei Darussalam       445.     440.  5576
10 Canada                  499.     484. 23073
# ℹ 70 more rows
…
