MASTEMR - 03 Descriptive Statistics
…
# A tibble: 1 × 3
  MeanSci MeanMath Total
    <dbl>    <dbl> <int>
1    424.     428. 76506

You can add multiple filters by using the & operator which means AND. Later on we will also meet |, which means OR. So if you want to find the scores of female students in the UK you would use:

# A tibble: 1 × 3
  MeanSci MeanMath Total
    <dbl>    <dbl> <int>
1    494.     501.  6822

Often we are interested in summary data across multiple subgroups. We can then tell R to group_by, for example, group_by(CNT), to get a summary of data for subgroups.

# A tibble: 80 × 4
   CNT                    MeanSci MeanMath Total
   <fct>                    <dbl>    <dbl> <int>
 1 Albania                   417.     438.  6359
 2 United Arab Emirates      425.     430. 19277
 3 Argentina                 418.     392. 11975
 4 Australia                 502.     492. 14273
 5 Austria                   493.     503.  6802
 6 Belgium                   502.     511.  8475
 7 Bulgaria                  426.     440.  5294
 8 Bosnia and Herzegovina    398.     407.  6480
 9 Belarus                   474.     473.  5803
10 Brazil                    407.     384. 10691
# ℹ 70 more rows
…
