04 Introduction to PISA – MASTEMR
…
line 2 - select the variables of interest

3

line 3 - treat the data as grouped by country (group_by(CNT))

4

line 4 - summarise to calculate the mean score of HOMEPOS in a new column meanwealth, setting na.rm=TRUE to ignore NA values

5

line 5 - arrange in descending order by meanwealth

# A tibble: 80 × 2
   CNT         meanwealth
   <fct>            <dbl>
 1 Norway           0.547
 2 Australia        0.483
 3 Korea            0.371
 4 New Zealand      0.367
 5 Canada           0.348
 6 Iceland          0.346
 7 Sweden           0.327
 8 Ireland          0.318
 9 Malta            0.308
10 Austria          0.280
# ℹ 70 more rows
# A tibble: 80 × 3
   CNT         meanwealth sdwealth
   <fct>            <dbl>    <dbl>
 1 Norway           0.547    0.970
 2 Australia        0.483    0.861
 3 Korea            0.371    1.01 
 4 New Zealand      0.367    0.862
 5 Canada           0.348    0.867
 6 Iceland          0.346    0.805
 7 Sweden           0.327    0.878
 8 Ireland          0.318    0.818
 9 Malta            0.308    0.857
10 Austria          0.280    0.938
# ℹ 70 more rows
…
# Create a data frame of UK responses
UKPISA2022 <- PISA_2022 %>%
  select(CNT, HOMEPOS) %>%
  filter(CNT == "United Kingdom") %>%
4  mutate(wealthclass =  case_when(HOMEPOS > mean(HOMEPOS, na.rm =TRUE) ~ "High",
                                  HOMEPOS < mean(HOMEPOS, na.rm =TRUE) ~ "Low",
                                   .default = NA)) 
UKPISA2022

4

line 4 - mutate to create a new column wealthclass - if HOMEPOS is more than mean(HOMEPOS), set the column to “High” otherwise set it to “Low”

# A tibble: 12,972 × 3
   CNT            HOMEPOS wealthclass
   <fct>            <dbl> <chr>      
 1 United Kingdom  -1.09  Low        
 2 United Kingdom  -0.418 Low        
 3 United Kingdom   1.13  High       
 4 United Kingdom  -0.829 Low        
 5 United Kingdom  -0.274 Low        
 6 United Kingdom  NA     <NA>       
 7 United Kingdom  -0.606 Low        
 8 United Kingdom  NA     <NA>       
 9 United Kingdom   0.425 High       
10 United Kingdom   0.998 High       
# ℹ 12,962 more rows
…
Show the answer

# Create a ranked data data frame for science

PISA2022SciRank <- PISA_2022 %>%
  select(CNT, PV1SCIE) %>% # Select variables of interest
  group_by(CNT) %>% # group by country
  summarise(meansci = mean(PV1SCIE)) %>% 
     # summarise  country data to find the mean Sci score
  arrange(desc(meansci)) # arrange in descending order based on the meansci score

print(PISA2022SciRank)

# A tibble: 80 × 2
   CNT               meansci
   <fct>               <dbl>
 1 Singapore            561.
 2 Japan                546.
 3 Macao (China)        543.
 4 Korea                531.
 5 Estonia              527.
 6 Chinese Taipei       527.
 7 Hong Kong (China)    525.
 8 Czech Republic       511.
 9 Australia            508.
10 Poland               505.
# ℹ 70 more rows

Show the answer

# And repeat the ranking for wealth

PISA2022WealthRank <- PISA_2022 %>%
  select(CNT, HOMEPOS) %>% # Select variables of interest
  group_by(CNT) %>% # group by country
  summarise(meanwel = mean(HOMEPOS, na.rm=TRUE)) %>% 
     # summarise  country data to find the mean Sci score
  arrange(desc(meanwel)) # arrange in descending order based on the meansci score

print(PISA2022WealthRank)

# A tibble: 80 × 2
   CNT         meanwel
   <fct>         <dbl>
 1 Norway        0.547
 2 Australia     0.483
 3 Korea         0.371
 4 New Zealand   0.367
 5 Canada        0.348
 6 Iceland       0.346
 7 Sweden        0.327
 8 Ireland       0.318
 9 Malta         0.308
10 Austria       0.280
# ℹ 70 more rows
Show the answer

# With standard deviations

PISA2022SciRank <- PISA_2022 %>%
  select(CNT, PV1SCIE) %>% # Select variables of interest
  group_by(CNT) %>% # group by country
  summarise(meansci = mean(PV1SCIE), 
            sdsci = sd(PV1SCIE)) %>% 
  # summarise  country data to find the mean Sci score
  arrange(desc(meansci)) # arrange in descending order based on the meansci score

print(PISA2022SciRank)

# A tibble: 80 × 3
   CNT               meansci sdsci
   <fct>               <dbl> <dbl>
 1 Singapore            561.  99.6
 2 Japan                546.  92.7
 3 Macao (China)        543.  86.6
 4 Korea                531. 104. 
 5 Estonia              527.  87.7
 6 Chinese Taipei       527. 102. 
 7 Hong Kong (China)    525.  91.1
 8 Czech Republic       511. 103. 
 9 Australia            508. 107. 
10 Poland               505.  94.2
# ℹ 70 more rows

Show the answer

PISA2022WealthRank <- PISA_2022%>%
  select(CNT, HOMEPOS)%>% # Select variables of interest
  group_by(CNT) %>% # group by country
  summarise(meanwel = mean(HOMEPOS, na.rm=TRUE),
            sdwel = sd(HOMEPOS, na.rm=TRUE)) %>% 
  # summarise  country data to find  mean wealth score
  arrange(desc(meanwel)) 
  # arrange in descending order based on the meanwel score
print(PISA2022WealthRank)

# A tibble: 80 × 3
   CNT         meanwel sdwel
   <fct>         <dbl> <dbl>
 1 Norway        0.547 0.970
 2 Australia     0.483 0.861
 3 Korea         0.371 1.01 
 4 New Zealand   0.367 0.862
 5 Canada        0.348 0.867
 6 Iceland       0.346 0.805
 7 Sweden        0.327 0.878
 8 Ireland       0.318 0.818
 9 Malta         0.308 0.857
10 Austria       0.280 0.938
# ℹ 70 more rows
…
