MASTEMR - 05 Introduction to PISA
…
1.3.1 Summarising data

Recall you can use group_by and summarise to group individual student measures and find means and standard deviations for countries. For example, to find the mean wealth scores for the countries, and rank in descending order, we first select the variables of interest CNT and WEALTH, then group_by CNT and summarise to get the mean. As there are some NA values, we need to include na.rm=TRUE to tell summarise to ignore the missing values. Finally, we arrange in descending order by the new variable we create meanwealth. We can do the same and add a calculation to get the standard deviation.

# Create a dataframe of PISA 2018 data of country mean weatlh
PISA2018WealthRank <- PISA_2018 %>%
  select(CNT, WEALTH) %>% # Select variables of interest
  group_by(CNT) %>% # group by country
  summarise(meanwealth = mean(WEALTH, na.rm = TRUE)) %>% 
                    # summarise  country data to find the mean WEALTH
  arrange(desc(meanwealth)) # arrange in descending order based on the 
                            # meanwealth score
PISA2018WealthRank

# A tibble: 80 × 2
   CNT                  meanwealth
   <fct>                     <dbl>
 1 Denmark                   0.871
 2 Australia                 0.667
 3 Norway                    0.666
 4 United Arab Emirates      0.508
 5 Malta                     0.454
 6 United Kingdom            0.444
 7 Sweden                    0.440
 8 New Zealand               0.435
 9 Iceland                   0.428
10 Netherlands               0.426
# ℹ 70 more rows

# With standard deviations

PISA2018WealthRank <- PISA_2018 %>%
  select(CNT, WEALTH) %>% # Select variables of interest
  group_by(CNT) %>% # group by country
  summarise(meanwealth = mean(WEALTH, na.rm = TRUE),  
            # summarise  country data to find the mean WEALTH
            sdwealth=sd(WEALTH, na.rm = TRUE)) %>% # and standard deviation
  arrange(desc(meanwealth)) 
# arrange in descending order based on the meanwealth score

PISA2018WealthRank

# A tibble: 80 × 3
   CNT                  meanwealth sdwealth
   <fct>                     <dbl>    <dbl>
 1 Denmark                   0.871    0.708
 2 Australia                 0.667    0.864
 3 Norway                    0.666    0.938
 4 United Arab Emirates      0.508    1.46 
 5 Malta                     0.454    0.868
 6 United Kingdom            0.444    0.891
 7 Sweden                    0.440    0.900
 8 New Zealand               0.435    0.901
 9 Iceland                   0.428    0.813
10 Netherlands               0.426    0.752
# ℹ 70 more rows
…
For example, create a data frame of UK participants WEALTH sorted into HIGH and LOW categories.

# Create a data frame of UK responses
UKPISA2018 <- PISA_2018 %>%
  select(CNT, WEALTH) %>%
  filter(CNT == "United Kingdom") %>%
  mutate(wealthclass =  ifelse(WEALTH > mean(WEALTH, na.rm=TRUE), 
                               "High", # mutate to create a new column
                               "Low")) # wealthclass - if WEALTH is more
                                       # than mean(WEALTH) set the column to
                                       # "High" otherwise set it to "Low"
UKPISA2018

# A tibble: 13,818 × 3
   CNT            WEALTH wealthclass
   <fct>           <dbl> <chr>      
 1 United Kingdom -0.935 Low        
 2 United Kingdom  1.20  High       
 3 United Kingdom -1.76  Low        
 4 United Kingdom -0.248 Low        
 5 United Kingdom -0.710 Low        
 6 United Kingdom -0.546 Low        
 7 United Kingdom -1.30  Low        
 8 United Kingdom -1.43  Low        
 9 United Kingdom -0.775 Low        
10 United Kingdom NA     <NA>       
# ℹ 13,808 more rows
…
Note that the PISA variable WEALTH refers to parental occupation - you might want to consider the implications of that definition for interpreting the data

Show the answer
# Create a ranked data data frame for science

PISA2018SciRank<-PISA_2018%>%
  select(CNT, PV1SCIE)%>% # Select variables of interest
  group_by(CNT)%>% # group by country
  summarise(meansci = mean(PV1SCIE))%>% 
     # summarise  country data to find the mean Sci score
  arrange(desc(meansci)) # arrange in descending order based on the meansci score
print(PISA2018SciRank)

# A tibble: 80 × 2
   CNT             meansci
   <fct>             <dbl>
 1 B-S-J-Z (China)    594.
 2 Singapore          549.
 3 Macao              542.
 4 Estonia            530.
 5 Japan              529.
 6 Korea              520.
 7 Finland            519.
 8 Hong Kong          519.
 9 Czech Republic     514.
10 Poland             512.
# ℹ 70 more rows

Show the answer
# And repeat the ranking for wealth

PISA2018WealthRank<-PISA_2018%>%
  select(CNT, WEALTH)%>% # Select variables of interest
  group_by(CNT)%>% # group by country
  summarise(meanwel = mean(WEALTH, na.rm=TRUE))%>% 
     # summarise  country data to find the mean Sci score
  arrange(desc(meanwel)) # arrange in descending order based on the meansci score
print(PISA2018WealthRank)

# A tibble: 80 × 2
   CNT                  meanwel
   <fct>                  <dbl>
 1 Denmark                0.871
 2 Australia              0.667
 3 Norway                 0.666
 4 United Arab Emirates   0.508
 5 Malta                  0.454
 6 United Kingdom         0.444
 7 Sweden                 0.440
 8 New Zealand            0.435
 9 Iceland                0.428
10 Netherlands            0.426
# ℹ 70 more rows

Show the answer
# With standard deviations

PISA2018SciRank<-PISA_2018%>%
  select(CNT, PV1SCIE)%>% # Select variables of interest
  group_by(CNT)%>% # group by country
  summarise(meansci = mean(PV1SCIE), 
            sdsci = sd(PV1SCIE))%>% 
  # summarise  country data to find the mean Sci score
  arrange(desc(meansci)) # arrange in descending order based on the meansci score
print(PISA2018SciRank)

# A tibble: 80 × 3
   CNT             meansci sdsci
   <fct>             <dbl> <dbl>
 1 B-S-J-Z (China)    594.  85.8
 2 Singapore          549.  99.0
 3 Macao              542.  83.2
 4 Estonia            530.  88.4
 5 Japan              529.  92.2
 6 Korea              520.  98.6
 7 Finland            519.  96.0
 8 Hong Kong          519.  85.2
 9 Czech Republic     514.  98.5
10 Poland             512.  91.4
# ℹ 70 more rows

Show the answer
PISA2018WealthRank<-PISA_2018%>%
  select(CNT, WEALTH)%>% # Select variables of interest
  group_by(CNT)%>% # group by country
  summarise(meanwel = mean(WEALTH, na.rm=TRUE),
            sdwel = sd(WEALTH, na.rm=TRUE))%>% 
  # summarise  country data to find  mean wealth score
  arrange(desc(meanwel)) 
  # arrange in descending order based on the meanwel score
print(PISA2018WealthRank)

# A tibble: 80 × 3
   CNT                  meanwel sdwel
   <fct>                  <dbl> <dbl>
 1 Denmark                0.871 0.708
 2 Australia              0.667 0.864
 3 Norway                 0.666 0.938
 4 United Arab Emirates   0.508 1.46 
 5 Malta                  0.454 0.868
 6 United Kingdom         0.444 0.891
 7 Sweden                 0.440 0.900
 8 New Zealand            0.435 0.901
 9 Iceland                0.428 0.813
10 Netherlands            0.426 0.752
# ℹ 70 more rows
…
