MASTEMR - 07 Hypothesis testing and Chi-square tests
…
Tip

To sort a table, the easiest way is to convert it to a dataframe and then use the arrange function. The default order for arrange is ascending, adding desc switches to descending.

# Arranging a table

PISA_2018 %>%
  select(CNT, ST011Q06TA) %>% # Select internet and country variables
  filter(ST011Q06TA == "Yes") %>% 
  group_by(CNT) %>%
  count() %>%
  arrange(desc(n))

# A tibble: 80 × 2
# Groups:   CNT [80]
   CNT                      n
   <fct>                <int>
 1 Spain                34663
 2 Canada               21116
 3 United Arab Emirates 17616
 4 Kazakhstan           17511
 5 United Kingdom       13126
 6 Qatar                12613
 7 Australia            12547
 8 B-S-J-Z (China)      11286
 9 Italy                11127
10 Argentina             9871
# ℹ 70 more rows
…
