PISA – MASTEMR
…
Population statistics should be estimated using each plausible value separately. The reported population statistic is then the average of each plausible value statistic. For instance, if one is interested in the correlation coefficient between the social index and the reading performance in PISA, then five correlation coefficients should be computed and then averaged

Plausible values should never be averaged at the student level, i.e. by computing in the dataset the mean of the five plausible values at the student level and then computing the statistic of interest once using that average PV value. Doing so would be equivalent to an EAP estimate, with a bias as described in the previous section.

(Monseur et al. 2009, 100)

The actual PV values can differ substantially from each, for example if we work out the scaled (normalised) value for a PV value, that is how many standard deviations from the mean of other PV values a student gets we can see large fluctuations. For student 5, PV1SCIE is 0.147 standard deviations lower than the average of all students, but when we look at their PV2SCIE score, we see it is 1.10 standard deviations higher:

PISA_2022 %>% 
  mutate(PV1SCIE_z = scale(PV1SCIE),
         PV2SCIE_z = scale(PV2SCIE)) %>%
  select(PV1SCIE, PV2SCIE,
         PV1SCIE_z, PV2SCIE_z)

# A tibble: 613,744 × 4
   PV1SCIE PV2SCIE PV1SCIE_z[,1] PV2SCIE_z[,1]
     <dbl>   <dbl>         <dbl>         <dbl>
 1    335.    296.        -1.09         -1.47 
 2    315.    327.        -1.29         -1.17 
 3    359.    345.        -0.872        -1.00 
 4    215.    192.        -2.24         -2.45 
 5    435.    566.        -0.147         1.10 
 6    479.    482.         0.272         0.298
 7    342.    290.        -1.03         -1.52 
 8    323.    359.        -1.22         -0.865
 9    361.    362.        -0.854        -0.840
10    386.    427.        -0.614        -0.221
# ℹ 613,734 more rows
…
4.2.1.1 Numeric fields

We can find the mean poverty level of country, by looking at HOMEPOS. Calculating this without the weights gives us the following:

Code
df <- PISA_2022 %>% 
  group_by(CNT) %>%
  summarise(HOMEPOS_m = mean(HOMEPOS, na.rm=TRUE),
            HOMEPOS_md = median(HOMEPOS, na.rm=TRUE)) %>%
  arrange(HOMEPOS_m)

df

# A tibble: 80 × 3
   CNT                   HOMEPOS_m HOMEPOS_md
   <fct>                     <dbl>      <dbl>
 1 Cambodia                  -2.41      -2.48
 2 Morocco                   -1.77      -1.77
 3 Philippines               -1.75      -1.74
 4 Indonesia                 -1.58      -1.63
 5 El Salvador               -1.57      -1.60
 6 Guatemala                 -1.52      -1.58
 7 Paraguay                  -1.52      -1.65
 8 Palestinian Authority     -1.49      -1.43
 9 Peru                      -1.40      -1.43
10 Jordan                    -1.38      -1.36
# ℹ 70 more rows

Now we can adjust this code to apply weights - students in each country will have their HOMEPOS score multiplied by their weight, the mean of these weighted HOMEPOS values calculated and the result of this divided by the mean weights for each country.

Code
PISA_2022 %>% 
  group_by(CNT) %>%
  summarise(HOMEPOS_m_weight = 
              mean(HOMEPOS * W_FSTUWT, na.rm=TRUE) / 
              mean(W_FSTUWT)
            ) %>%
  arrange(HOMEPOS_m_weight) %>% 
  left_join(df) %>%
  mutate(weight_diff = abs((HOMEPOS_m - HOMEPOS_m_weight) / HOMEPOS_m))

# A tibble: 80 × 5
   CNT                   HOMEPOS_m_weight HOMEPOS_m HOMEPOS_md weight_diff
   <fct>                            <dbl>     <dbl>      <dbl>       <dbl>
 1 Cambodia                         -2.34     -2.41      -2.48    0.0266  
 2 Philippines                      -1.75     -1.75      -1.74    0.000664
 3 Morocco                          -1.74     -1.77      -1.77    0.0135  
 4 Indonesia                        -1.70     -1.58      -1.63    0.0738  
 5 El Salvador                      -1.63     -1.57      -1.60    0.0333  
 6 Paraguay                         -1.56     -1.52      -1.65    0.0259  
 7 Guatemala                        -1.54     -1.52      -1.58    0.00802 
 8 Palestinian Authority            -1.53     -1.49      -1.43    0.0270  
 9 Peru                             -1.44     -1.40      -1.43    0.0262  
10 Thailand                         -1.43     -1.17      -1.27    0.215   
# ℹ 70 more rows
…
df_weight <- PISA_2022 %>% 
  group_by(CNT, {{focus}}) %>%
  summarise(foc_weight = sum(W_FSTUWT)) %>%
  group_by(CNT, is.na({{focus}})) %>%
  mutate(foc_weight_pct = foc_weight / sum(foc_weight))

df_weight

# A tibble: 288 × 5
# Groups:   CNT, is.na(IC180Q01JA) [132]
   CNT                  IC180Q01JA foc_weight `is.na(IC180Q01JA)` foc_weight_pct
   <fct>                <fct>           <dbl> <lgl>                        <dbl>
 1 Albania              Strongly …      2507. FALSE                       0.159 
 2 Albania              Disagree        5570. FALSE                       0.354 
 3 Albania              Agree           5812. FALSE                       0.369 
 4 Albania              Strongly …      1859. FALSE                       0.118 
 5 Albania              <NA>           12678. TRUE                        1     
 6 United Arab Emirates <NA>           60765. TRUE                        1     
 7 Argentina            Strongly …     45273. FALSE                       0.145 
 8 Argentina            Disagree      117827. FALSE                       0.377 
 9 Argentina            Agree         127605. FALSE                       0.408 
10 Argentina            Strongly …     21941. FALSE                       0.0702
# ℹ 278 more rows
…
PISA_2022 %>%
  select(CNT, W_FSTUWT, PV1MATH:PV10MATH) %>%
  mutate(across(PV1MATH:PV10MATH, ~ .x * W_FSTUWT, .names = "{.col}_weighted")) %>%
  group_by(CNT) %>%
  summarise(
    total_weight = sum(W_FSTUWT, na.rm = TRUE),
    across(PV1MATH_weighted:PV10MATH_weighted, ~ sum(.x, na.rm = TRUE) / total_weight, .names = "{.col}_mean")) %>%
  rowwise() %>%
  mutate(PV_mean_weighted = mean(c_across(ends_with("_mean")), na.rm = TRUE)) %>%
  select(CNT, PV_mean_weighted) %>%
  mutate(PV_mean_weighted = round(PV_mean_weighted, digits = 1)) %>%
  arrange(desc(PV_mean_weighted))

# A tibble: 80 × 2
# Rowwise: 
   CNT               PV_mean_weighted
   <fct>                        <dbl>
 1 Singapore                     575.
 2 Macao (China)                 552.
 3 Chinese Taipei                547.
 4 Hong Kong (China)             540.
 5 Japan                         536.
 6 Korea                         527.
 7 Estonia                       510.
 8 Switzerland                   508 
 9 Canada                        497.
10 Netherlands                   493.
# ℹ 70 more rows
…
  return(list(results=results, 
              results_flat=results_flat))
}

# we can call the model comparison, like so:
mdl_pvs_math <- multi_pv_lm(PISA_2022, "PV1MATH ~ HOMEPOS + ESCS")

# You can then access the full model responses through:
mdl_pvs_math$results

# A tibble: 30 × 7
   term        estimate std.error statistic p.value    R2 PV     
   <chr>          <dbl>     <dbl>     <dbl>   <dbl> <dbl> <chr>  
 1 (Intercept)    459.      0.131    3515.        0 0.290 PV1MATH
 2 HOMEPOS         34.3     0.154     223.        0 0.290 PV1MATH
 3 ESCS            10.7     0.153      69.8       0 0.290 PV1MATH
 4 (Intercept)    459.      0.130    3524.        0 0.289 PV2MATH
 5 HOMEPOS         34.4     0.154     224.        0 0.289 PV2MATH
 6 ESCS            10.5     0.153      68.4       0 0.289 PV2MATH
 7 (Intercept)    459.      0.130    3524.        0 0.290 PV3MATH
 8 HOMEPOS         34.2     0.154     223.        0 0.290 PV3MATH
 9 ESCS            10.8     0.153      70.6       0 0.290 PV3MATH
10 (Intercept)    459.      0.130    3530.        0 0.291 PV4MATH
# ℹ 20 more rows
…
