Self Study Tasks – MASTEMR
…
To load the data, use the code below:

0.1 Task 1 Practice creating a summary table #1

Create a table that summarises the mean PISA science scores by country. You will need to use the group_by, summarise and mean functions.

Show the code
PISAsummary <- PISA_2022 %>%  # Pipe the overall frame to a summary data.frame
  select(CNT, PV1SCIE) %>%  # Select the two required columns
  group_by(CNT) %>%        # Group the entries by country
  summarise(meansci = mean(PV1SCIE)) # calculate means for each country

print(PISAsummary)

# A tibble: 80 × 2
   CNT                  meansci
   <fct>                  <dbl>
 1 Albania                 376.
 2 United Arab Emirates    436.
 3 Argentina               415.
 4 Australia               508.
 5 Austria                 494.
 6 Belgium                 495.
 7 Bulgaria                422.
 8 Brazil                  406.
 9 Brunei Darussalam       445.
10 Canada                  499.
# ℹ 70 more rows
…
